Wrangling Census data
…
ca_race <- get_acs(
  geography = "county",
  state = "CA",
  variables = race_vars,
  summary_var = "B03002_001", # total population
  year = 2020
) %>%
  print()

## Getting data from the 2016-2020 5-year ACS

## # A tibble: 348 × 7
##    GEOID NAME                       variable estimate   moe summary_est summar…¹
##    <chr> <chr>                      <chr>       <dbl> <dbl>       <dbl>    <dbl>
##  1 06001 Alameda County, California White      508583   886     1661584       NA
##  2 06001 Alameda County, California Black      167316  1387     1661584       NA
##  3 06001 Alameda County, California Native       4942   249     1661584       NA
##  4 06001 Alameda County, California Asian      515105  2453     1661584       NA
##  5 06001 Alameda County, California HIPI        12924   533     1661584       NA
##  6 06001 Alameda County, California Hispanic   369546    NA     1661584       NA
##  7 06003 Alpine County, California  White         595   120        1159      172
##  8 06003 Alpine County, California  Black          10    23        1159      172
##  9 06003 Alpine County, California  Native        333    41        1159      172
## 10 06003 Alpine County, California  Asian           6     9        1159      172
## # … with 338 more rows, and abbreviated variable name ¹​summary_moe

By using dplyr’s mutate() function, we calculate a new
column, percent, representing the percentage of each
county’s population that corresponds to each racial/ethnic group in
2016-2020. The select() function, also in dplyr, retains
only those columns that we need to view.

ca_race_percent <- ca_race %>%
  mutate(percent = 100 * (estimate / summary_est)) %>%
  select(NAME, variable, percent) %>%
  print()

## # A tibble: 348 × 3
##    NAME                       variable percent
##    <chr>                      <chr>      <dbl>
##  1 Alameda County, California White     30.6  
##  2 Alameda County, California Black     10.1  
##  3 Alameda County, California Native     0.297
##  4 Alameda County, California Asian     31.0  
##  5 Alameda County, California HIPI       0.778
##  6 Alameda County, California Hispanic  22.2  
##  7 Alpine County, California  White     51.3  
##  8 Alpine County, California  Black      0.863
##  9 Alpine County, California  Native    28.7  
## 10 Alpine County, California  Asian      0.518
## # … with 338 more rows
…
Group-wise operation: split-apply-combine

Find the largest race/ethnicity group in each county in
California:

ca_race_percent %>%
  group_by(NAME) %>%
  slice_max(percent) %>%
  ## syntactically same  
  # filter(percent == max(percent)) %>% 
  print()

## # A tibble: 58 × 3
## # Groups:   NAME [58]
##    NAME                            variable percent
##    <chr>                           <chr>      <dbl>
##  1 Alameda County, California      Asian       31.0
##  2 Alpine County, California       White       51.3
##  3 Amador County, California       White       76.8
##  4 Butte County, California        White       71.2
##  5 Calaveras County, California    White       80.3
##  6 Colusa County, California       Hispanic    59.7
##  7 Contra Costa County, California White       42.6
##  8 Del Norte County, California    White       61.1
##  9 El Dorado County, California    White       77.2
## 10 Fresno County, California       Hispanic    53.4
## # … with 48 more rows
…
Household income data for California counties from the 2012-2016
ACS:

ca_hh_income <- get_acs(
  geography = "county",
  table = "B19001",
  state = "CA",
  year = 2016
  ) %>%
  print()

## Getting data from the 2012-2016 5-year ACS

## # A tibble: 986 × 5
##    GEOID NAME                       variable   estimate   moe
##    <chr> <chr>                      <chr>         <dbl> <dbl>
##  1 06001 Alameda County, California B19001_001   564293  1576
##  2 06001 Alameda County, California B19001_002    28717   973
##  3 06001 Alameda County, California B19001_003    24566  1002
##  4 06001 Alameda County, California B19001_004    19440   888
##  5 06001 Alameda County, California B19001_005    20781  1022
##  6 06001 Alameda County, California B19001_006    18185   944
##  7 06001 Alameda County, California B19001_007    18747   803
##  8 06001 Alameda County, California B19001_008    18175   857
##  9 06001 Alameda County, California B19001_009    18632   888
## 10 06001 Alameda County, California B19001_010    17294   825
## # … with 976 more rows
…
ca_group_sums <- ca_hh_income %>%
  filter(variable != "B19001_001") %>%
  mutate(incgroup = case_when(
    variable < "B19001_008" ~ "below35k", 
    variable < "B19001_013" ~ "bw35kand75k", 
    TRUE ~ "above75k" # all other values
  )) %>%
  group_by(GEOID, incgroup) %>%
  summarize(estimate = sum(estimate)) %>%
  print()

## `summarise()` has grouped output by 'GEOID'. You can override using the
## `.groups` argument.

## # A tibble: 174 × 3
## # Groups:   GEOID [58]
##    GEOID incgroup    estimate
##    <chr> <chr>          <dbl>
##  1 06001 above75k      296877
##  2 06001 below35k      130436
##  3 06001 bw35kand75k   136980
##  4 06003 above75k         120
##  5 06003 below35k         113
##  6 06003 bw35kand75k      110
##  7 06005 above75k        4912
##  8 06005 below35k        4599
##  9 06005 bw35kand75k     4737
## 10 06007 above75k       24280
## # … with 164 more rows
…
Suppose we are interested studying Oglala Lakota County, South
Dakota. 5-year ACS estimates from 2016-2022.

oglala_lakota_age <- get_acs(
  geography = "county",
  state = "SD",
  county = "Oglala Lakota",
  table = "B01001",
  year = 2020
) %>%
  print()

## Getting data from the 2016-2020 5-year ACS

## # A tibble: 49 × 5
##    GEOID NAME                               variable   estimate   moe
##    <chr> <chr>                              <chr>         <dbl> <dbl>
##  1 46102 Oglala Lakota County, South Dakota B01001_001    14277    NA
##  2 46102 Oglala Lakota County, South Dakota B01001_002     6930   132
##  3 46102 Oglala Lakota County, South Dakota B01001_003      761    66
##  4 46102 Oglala Lakota County, South Dakota B01001_004      794   128
##  5 46102 Oglala Lakota County, South Dakota B01001_005      707   123
##  6 46102 Oglala Lakota County, South Dakota B01001_006      394    20
##  7 46102 Oglala Lakota County, South Dakota B01001_007      227    15
##  8 46102 Oglala Lakota County, South Dakota B01001_008       85    53
##  9 46102 Oglala Lakota County, South Dakota B01001_009      165    70
## 10 46102 Oglala Lakota County, South Dakota B01001_010      356   101
## # … with 39 more rows
…
percent_college_by_year <- college_by_year %>%
  group_by(NAME, year) %>%
  summarize(numerator = sum(estimate),
            denominator = first(summary_est)) %>%
  mutate(pct_college = 100 * (numerator / denominator)) %>%
  pivot_wider(id_cols = NAME,
              names_from = year,
              values_from = pct_college) %>%
  print()

## `summarise()` has grouped output by 'NAME'. You can override using the
## `.groups` argument.

## # A tibble: 42 × 12
## # Groups:   NAME [42]
##    NAME    `2010` `2011` `2012` `2013` `2014` `2015` `2016` `2017` `2018` `2019`
##    <chr>    <dbl>  <dbl>  <dbl>  <dbl>  <dbl>  <dbl>  <dbl>  <dbl>  <dbl>  <dbl>
##  1 Alamed…   40.3   41.2   42.4   42.4   42.8   45.1   45.4   46.4   48.3   50.6
##  2 Butte …   22.5   24.3   24.1   26.6   27.1   27.8   25.8   26.6   26.2   30.5
##  3 Contra…   38.6   39.0   39.4   39.0   39.7   40.2   41.5   42.2   43.6   43.0
##  4 El Dor…   31.7   29.4   32.0   33.5   31.1   33.2   34.0   34.2   35.9   35.3
##  5 Fresno…   20.1   18.7   18.5   19.8   19.7   19.2   20.2   20.4   21.8   22.0
##  6 Humbol…   25.2   27.4   26.7   28.3   27.9   27.2   29.5   33.6   30.0   30.4
##  7 Imperi…   13.2   13.3   13.0   12.7   14.8   14.3   13.9   15.1   14.1   18.4
##  8 Kern C…   15.0   14.8   15.3   14.4   15.4   16.2   16.3   16.0   16.2   17.1
##  9 Kings …   10.9   15.3   12.1   12.9   11.5   16.1   11.6   13.2   14.7   17.6
## 10 Lake C…   16.0   16.3   17.1   14.5   17.7   12.5   16.0   13.7   18.4   15.4
## # … with 32 more rows, and 1 more variable: `2021` <dbl>
…
vars <- str_c("B01001_0", c(20:25, 44:49)) # Males + Females

lac <- get_acs(
  geography = "tract",
  variables = vars,
  county = "Los Angeles",
  state = "CA",  
  year = 2020
) %>%
  print(width = Inf, n = 20)

## Getting data from the 2016-2020 5-year ACS

## # A tibble: 29,976 × 5
##    GEOID       NAME                                                 variable  
##    <chr>       <chr>                                                <chr>     
##  1 06037101110 Census Tract 1011.10, Los Angeles County, California B01001_020
##  2 06037101110 Census Tract 1011.10, Los Angeles County, California B01001_021
##  3 06037101110 Census Tract 1011.10, Los Angeles County, California B01001_022
##  4 06037101110 Census Tract 1011.10, Los Angeles County, California B01001_023
##  5 06037101110 Census Tract 1011.10, Los Angeles County, California B01001_024
##  6 06037101110 Census Tract 1011.10, Los Angeles County, California B01001_025
##  7 06037101110 Census Tract 1011.10, Los Angeles County, California B01001_044
##  8 06037101110 Census Tract 1011.10, Los Angeles County, California B01001_045
##  9 06037101110 Census Tract 1011.10, Los Angeles County, California B01001_046
## 10 06037101110 Census Tract 1011.10, Los Angeles County, California B01001_047
## 11 06037101110 Census Tract 1011.10, Los Angeles County, California B01001_048
## 12 06037101110 Census Tract 1011.10, Los Angeles County, California B01001_049
## 13 06037101122 Census Tract 1011.22, Los Angeles County, California B01001_020
## 14 06037101122 Census Tract 1011.22, Los Angeles County, California B01001_021
## 15 06037101122 Census Tract 1011.22, Los Angeles County, California B01001_022
## 16 06037101122 Census Tract 1011.22, Los Angeles County, California B01001_023
## 17 06037101122 Census Tract 1011.22, Los Angeles County, California B01001_024
## 18 06037101122 Census Tract 1011.22, Los Angeles County, California B01001_025
## 19 06037101122 Census Tract 1011.22, Los Angeles County, California B01001_044
## 20 06037101122 Census Tract 1011.22, Los Angeles County, California B01001_045
##    estimate   moe
##       <dbl> <dbl>
##  1       83    69
##  2      123    69
##  3       14    17
##  4       43    46
##  5       28    29
##  6        2     6
##  7       73    60
##  8      105    65
##  9       56    39
## 10       54    54
## 11       84    46
## 12       37    25
## 13       35    31
## 14       19    18
## 15       63    40
## 16       93    51
## 17       43    34
## 18      117   182
## 19       40    33
## 20       92    67
## # … with 29,956 more rows
…
