Visualizing Census data
…
## Getting data from the 2020 decennial Census

## Using the PL 94-171 Redistricting Data Summary File

## Note: 2020 decennial Census data use differential privacy, a technique that
## introduces errors into data to preserve respondent confidentiality.
## ℹ Small counts should be interpreted with caution.
## ℹ See https://www.census.gov/library/fact-sheets/2021/protecting-the-confidentiality-of-the-2020-census-redistricting-data.html for additional guidance.
## This message is displayed once per session.

## # A tibble: 58 × 4
##    GEOID NAME                              variable    value
##    <chr> <chr>                             <chr>       <dbl>
##  1 06037 Los Angeles County, California    totalpop 10014009
##  2 06073 San Diego County, California      totalpop  3298634
##  3 06059 Orange County, California         totalpop  3186989
##  4 06065 Riverside County, California      totalpop  2418185
##  5 06071 San Bernardino County, California totalpop  2181654
##  6 06085 Santa Clara County, California    totalpop  1936259
##  7 06001 Alameda County, California        totalpop  1682353
##  8 06067 Sacramento County, California     totalpop  1585055
##  9 06013 Contra Costa County, California   totalpop  1165927
## 10 06019 Fresno County, California         totalpop  1008654
## # … with 48 more rows

Median household incomes:

ca_income <- get_acs(
  state = "CA",
  geography = "county",
  variables = c(hhincome = "B19013_001"),
  year = 2020
) %>%
  mutate(NAME = str_remove(NAME, " County, California")) %>%
  print()

## Getting data from the 2016-2020 5-year ACS

## # A tibble: 58 × 5
##    GEOID NAME         variable estimate   moe
##    <chr> <chr>        <chr>       <dbl> <dbl>
##  1 06001 Alameda      hhincome   104888  1041
##  2 06003 Alpine       hhincome    85750 23875
##  3 06005 Amador       hhincome    65187  4225
##  4 06007 Butte        hhincome    54972  2501
##  5 06009 Calaveras    hhincome    67054  4535
##  6 06011 Colusa       hhincome    59427  5384
##  7 06013 Contra Costa hhincome   103997  1239
##  8 06015 Del Norte    hhincome    49981  5145
##  9 06017 El Dorado    hhincome    83710  2228
## 10 06019 Fresno       hhincome    57109   929
## # … with 48 more rows
…
We use data from the Population Estimates API for the state of
California:

ca <- get_estimates(
  geography = "state",
  state = "CA",
  product = "characteristics",
  breakdown = c("SEX", "AGEGROUP"),
  breakdown_labels = TRUE,
  year = 2019
) %>%
  print()

## # A tibble: 96 × 5
##    GEOID NAME          value SEX        AGEGROUP          
##    <chr> <chr>         <dbl> <chr>      <fct>             
##  1 06    California 39512223 Both sexes All ages          
##  2 06    California  2383716 Both sexes Age 0 to 4 years  
##  3 06    California  2478850 Both sexes Age 5 to 9 years  
##  4 06    California  2529137 Both sexes Age 10 to 14 years
##  5 06    California  2533694 Both sexes Age 15 to 19 years
##  6 06    California  2647279 Both sexes Age 20 to 24 years
##  7 06    California  3094978 Both sexes Age 25 to 29 years
##  8 06    California  2957974 Both sexes Age 30 to 34 years
##  9 06    California  2780574 Both sexes Age 35 to 39 years
## 10 06    California  2501526 Both sexes Age 40 to 44 years
## # … with 86 more rows

Remove rows for Both sexes and flip values of
Male to negative.

ca_filtered <- ca %>%
  filter(
    str_detect(AGEGROUP, "^Age"), 
    SEX != "Both sexes"
    ) %>%
  mutate(value = ifelse(SEX == "Male", -value, value)) %>%
  print()

## # A tibble: 36 × 5
##    GEOID NAME          value SEX   AGEGROUP          
##    <chr> <chr>         <dbl> <chr> <fct>             
##  1 06    California -1220085 Male  Age 0 to 4 years  
##  2 06    California -1266874 Male  Age 5 to 9 years  
##  3 06    California -1292852 Male  Age 10 to 14 years
##  4 06    California -1292178 Male  Age 15 to 19 years
##  5 06    California -1359751 Male  Age 20 to 24 years
##  6 06    California -1600681 Male  Age 25 to 29 years
##  7 06    California -1525571 Male  Age 30 to 34 years
##  8 06    California -1416586 Male  Age 35 to 39 years
##  9 06    California -1255993 Male  Age 40 to 44 years
## 10 06    California -1252341 Male  Age 45 to 49 years
## # … with 26 more rows
…
## Getting data from the 2016-2020 5-year ACS

## # A tibble: 4,188 × 7
## # Groups:   county [6]
##    GEOID       tract               county          state   varia…¹ estim…²   moe
##    <chr>       <chr>               <chr>           <chr>   <chr>     <dbl> <dbl>
##  1 06025010101 Census Tract 101.01 Imperial County Califo… B25077…      NA    NA
##  2 06025010102 Census Tract 101.02 Imperial County Califo… B25077…  144000 11653
##  3 06025010200 Census Tract 102    Imperial County Califo… B25077…  157800 21388
##  4 06025010300 Census Tract 103    Imperial County Califo… B25077…  295300 52583
##  5 06025010401 Census Tract 104.01 Imperial County Califo… B25077…  138300 61660
##  6 06025010402 Census Tract 104.02 Imperial County Califo… B25077…  147200 23108
##  7 06025010500 Census Tract 105    Imperial County Califo… B25077…  230100 14814
##  8 06025010600 Census Tract 106    Imperial County Califo… B25077…  257000 23904
##  9 06025010700 Census Tract 107    Imperial County Califo… B25077…  163100 25943
## 10 06025010800 Census Tract 108    Imperial County Califo… B25077…  285100 32973
## # … with 4,178 more rows, and abbreviated variable names ¹​variable, ²​estimate
…
